# list_supported_datasets_ff returns expected structure

    Code
      result
    Output
      # A tibble: 297 x 3
         type                                dataset_name                       domain
         <chr>                               <chr>                              <chr> 
       1 factors_ff_3_monthly                Fama/French 3 Factors              Fama-~
       2 factors_ff_3_weekly                 Fama/French 3 Factors [Weekly]     Fama-~
       3 factors_ff_3_daily                  Fama/French 3 Factors [Daily]      Fama-~
       4 factors_ff_5_2x3_monthly            Fama/French 5 Factors (2x3)        Fama-~
       5 factors_ff_5_2x3_daily              Fama/French 5 Factors (2x3) [Dail~ Fama-~
       6 factors_ff_size_monthly             Portfolios Formed on Size          Fama-~
       7 factors_ff_size_exdividends_monthly Portfolios Formed on Size [ex.Div~ Fama-~
       8 factors_ff_size_daily               Portfolios Formed on Size [Daily]  Fama-~
       9 factors_ff_bm_monthly               Portfolios Formed on Book-to-Mark~ Fama-~
      10 factors_ff_bm_exdividends_monthly   Portfolios Formed on Book-to-Mark~ Fama-~
      # i 287 more rows
…
