…
compute_portfolio_returns(
  data, "size", "univariate",
  breakpoint_options_main = breakpoint_options(n_portfolios = 5)
)
#> # A tibble: 500 × 5
#>    portfolio date       ret_excess_vw ret_excess_ew ret_excess_vw_capped
#>        <int> <date>             <dbl>         <dbl>                <dbl>
#>  1         1 2020-01-01       -1.08         -1.11                -1.08  
#>  2         1 2020-02-01        1.02          1.02                 1.02  
#>  3         1 2020-03-01        0.949         0.678                0.949 
#>  4         1 2020-04-01        0.0696        0.821                0.0696
#>  5         1 2020-05-01       -0.250        -0.489               -0.250 
#>  6         1 2020-06-01        0.307         0.239                0.307 
#>  7         1 2020-07-01        0.196        -0.0990               0.191 
#>  8         1 2020-08-01       -0.0112       -0.0345              -0.0112
#>  9         1 2020-09-01       -0.154        -0.577               -0.171 
#> 10         1 2020-10-01       -1.26         -1.06                -1.26  
#> # ℹ 490 more rows
…
  breakpoint_options_main = breakpoint_options(n_portfolios = 5),
  breakpoint_options_secondary = breakpoint_options(n_portfolios = 3),
)
#> Warning: There were 24 warnings in `dplyr::mutate()`.
#> The first warning was:
#> ℹ In argument: `portfolio_main = assign_portfolio(...)`.
#> ℹ In group 1: `date = 2020-07-01`, `portfolio_secondary = 1`.
#> Caused by warning:
#> ! The number of portfolios differs from the specified parameter due to clusters
#> in the sorting variable.
#> ℹ Run `dplyr::last_dplyr_warnings()` to see the 23 remaining warnings.
#> Returning a complete panel with 430 missing values in factor returns due to
#> insufficient observations (fewer than 1 firm per (portfolio, date)
#> cross-section).
#> # A tibble: 470 × 5
#>    portfolio date       ret_excess_vw ret_excess_ew ret_excess_vw_capped
#>        <int> <date>             <dbl>         <dbl>                <dbl>
#>  1         1 2020-07-01        -0.276        -0.276               -0.276
#>  2         1 2020-08-01        NA            NA                   NA    
#>  3         1 2020-09-01        NA            NA                   NA    
#>  4         1 2020-10-01        NA            NA                   NA    
#>  5         1 2020-11-01        NA            NA                   NA    
#>  6         1 2020-12-01        NA            NA                   NA    
#>  7         1 2021-01-01        NA            NA                   NA    
#>  8         1 2021-02-01        NA            NA                   NA    
#>  9         1 2021-03-01        NA            NA                   NA    
#> 10         1 2021-04-01        NA            NA                   NA    
#> # ℹ 460 more rows
```
