…
portfolio_returns <- compute_portfolio_returns(
  data, "size", "univariate",
  breakpoint_options_main = breakpoint_options(n_portfolios = 5)
)

compute_long_short_returns(portfolio_returns)
#> # A tibble: 100 × 4
#>    date       ret_excess_vw ret_excess_ew ret_excess_vw_capped
#>    <date>             <dbl>         <dbl>                <dbl>
#>  1 2020-01-01     -0.833          -0.650               -0.833 
#>  2 2020-02-01      0.0996         -0.0632               0.0996
#>  3 2020-03-01      0.658           0.687                0.673 
#>  4 2020-04-01      0.998           1.05                 1.01  
#>  5 2020-05-01      0.567           0.747                0.567 
#>  6 2020-06-01     -1.13           -0.817               -1.05  
#>  7 2020-07-01      1.66            1.27                 1.66  
#>  8 2020-08-01      0.922           1.23                 0.948 
#>  9 2020-09-01     -0.488           0.137               -0.488 
#> 10 2020-10-01     -0.000934        0.0858               0.0389
#> # ℹ 90 more rows
```
