…
## Examples

``` r
# \donttest{
  download_data_fred("CPIAUCNS")
#> No `start_date` or `end_date` provided. Returning the full data set.
#> # A tibble: 1,361 × 3
#>    date       value series  
#>    <date>     <dbl> <chr>   
#>  1 1913-01-01   9.8 CPIAUCNS
#>  2 1913-02-01   9.8 CPIAUCNS
#>  3 1913-03-01   9.8 CPIAUCNS
#>  4 1913-04-01   9.8 CPIAUCNS
#>  5 1913-05-01   9.7 CPIAUCNS
#>  6 1913-06-01   9.8 CPIAUCNS
#>  7 1913-07-01   9.9 CPIAUCNS
#>  8 1913-08-01   9.9 CPIAUCNS
#>  9 1913-09-01  10   CPIAUCNS
#> 10 1913-10-01  10   CPIAUCNS
#> # ℹ 1,351 more rows
…
