…
## Examples

``` r
# \donttest{
  download_data_stock_prices(c("AAPL", "MSFT"))
#> No `start_date` or `end_date` provided. Using the range 2024-06-06 to
#> 2025-06-06 to avoid downloading large amounts of data.
#> # A tibble: 500 × 8
#>    symbol date          volume  open   low  high close adjusted_close
#>    <chr>  <date>         <dbl> <dbl> <dbl> <dbl> <dbl>          <dbl>
#>  1 AAPL   2024-06-06  41181800  196.  194.  196.  194.           193.
#>  2 AAPL   2024-06-07  53103900  195.  194.  197.  197.           195.
#>  3 AAPL   2024-06-10  97010200  197.  192.  197.  193.           191.
#>  4 AAPL   2024-06-11 172373300  194.  194.  207.  207.           205.
#>  5 AAPL   2024-06-12 198134300  207.  207.  220.  213.           211.
#>  6 AAPL   2024-06-13  97862700  215.  212.  217.  214.           212.
#>  7 AAPL   2024-06-14  70122700  214.  211.  215.  212.           211.
#>  8 AAPL   2024-06-17  93728300  213.  213.  219.  217.           215.
#>  9 AAPL   2024-06-18  79943300  218.  213   219.  214.           212.
#> 10 AAPL   2024-06-20  86172500  214.  209.  214.  210.           208.
#> # ℹ 490 more rows
  download_data_stock_prices("GOOGL", "2021-01-01", "2022-01-01" )
#> # A tibble: 252 × 8
#>    symbol date         volume  open   low  high close adjusted_close
#>    <chr>  <date>        <dbl> <dbl> <dbl> <dbl> <dbl>          <dbl>
#>  1 GOOGL  2021-01-04 37324000  88    85.4  88.1  86.3           85.6
#>  2 GOOGL  2021-01-05 20360000  86.3  85.8  87.3  87.0           86.3
#>  3 GOOGL  2021-01-06 46588000  85.0  84.8  87.2  86.1           85.4
#>  4 GOOGL  2021-01-07 41936000  86.3  86.3  88.9  88.7           88.0
#>  5 GOOGL  2021-01-08 35484000  88.9  88.1  90.0  89.9           89.2
#>  6 GOOGL  2021-01-11 34796000  88.9  87.6  89.2  87.8           87.1
#>  7 GOOGL  2021-01-12 29528000  87.3  85.8  88.4  86.9           86.2
#>  8 GOOGL  2021-01-13 23432000  86.4  86.4  87.8  87.4           86.6
#>  9 GOOGL  2021-01-14 29212000  87.4  86.3  88.4  86.5           85.8
#> 10 GOOGL  2021-01-15 31444000  86.5  85.6  87.4  86.4           85.7
#> # ℹ 242 more rows
…
