…
## Examples

``` r
# \donttest{
download_data(
  "Fama-French",
  "Fama/French 5 Factors (2x3) [Daily]",
  "2000-01-01",
  "2020-12-31"
)
#> # A tibble: 5,284 × 7
#>    date       mkt_excess     smb     hml     rmw     cma risk_free
#>    <date>          <dbl>   <dbl>   <dbl>   <dbl>   <dbl>     <dbl>
#>  1 2000-01-03    -0.0071 -0.0009 -0.0131 -0.0148 -0.007     0.0002
#>  2 2000-01-04    -0.0406  0.0034  0.0207  0.0053  0.0136    0.0002
#>  3 2000-01-05    -0.0009  0.0036 -0.0005  0.0045  0.0115    0.0002
#>  4 2000-01-06    -0.0074 -0.0004  0.0124  0.0064  0.0121    0.0002
#>  5 2000-01-07     0.0321 -0.0089 -0.0157 -0.0083 -0.01      0.0002
#>  6 2000-01-10     0.0175  0.0043 -0.0135 -0.022  -0.0024    0.0002
#>  7 2000-01-11    -0.0171  0.0033  0.0091  0.009   0.012     0.0002
#>  8 2000-01-12    -0.0069 -0.0022  0.0074  0.0042  0.0085    0.0002
#>  9 2000-01-13     0.0159  0.0047 -0.0084 -0.0172 -0.0103    0.0002
#> 10 2000-01-14     0.0114  0.0022 -0.0048 -0.0034 -0.006     0.0002
#> # ℹ 5,274 more rows
download_data("Goyal-Welch", "monthly", "2000-01-01", "2020-12-31")
#> # A tibble: 252 × 15
#>    date        rp_div    dp    dy    ep    de    svar    bm    ntis    tbl
#>    <date>       <dbl> <dbl> <dbl> <dbl> <dbl>   <dbl> <dbl>   <dbl>  <dbl>
#>  1 2000-01-01 -0.0244 -4.42 -4.48 -3.35 -1.08 0.00521 0.155 0.0254  0.0532
#>  2 2000-02-01  0.0866 -4.40 -4.42 -3.31 -1.09 0.00300 0.167 0.0274  0.0555
#>  3 2000-03-01 -0.0355 -4.49 -4.40 -3.38 -1.11 0.00668 0.150 0.0183  0.0569
#>  4 2000-04-01 -0.0269 -4.46 -4.49 -3.34 -1.12 0.00794 0.153 0.0119  0.0566
#>  5 2000-05-01  0.0194 -4.44 -4.46 -3.32 -1.13 0.00519 0.156 0.00918 0.0579
#>  6 2000-06-01 -0.0212 -4.47 -4.44 -3.33 -1.13 0.00236 0.157 0.00712 0.0569
#>  7 2000-07-01  0.0532 -4.46 -4.47 -3.30 -1.15 0.00207 0.156 0.00471 0.0596
#>  8 2000-08-01 -0.0595 -4.52 -4.46 -3.35 -1.17 0.00104 0.146 0.00467 0.0609
#>  9 2000-09-01 -0.0105 -4.48 -4.53 -3.29 -1.19 0.00160 0.154 0.00447 0.06  
#> 10 2000-10-01 -0.0876 -4.47 -4.48 -3.30 -1.17 0.00557 0.149 0.00374 0.0611
#> # ℹ 242 more rows
#> # ℹ 5 more variables: lty <dbl>, ltr <dbl>, tms <dbl>, dfy <dbl>, infl <dbl>
download_data("Index Constituents", index = "DAX")
#> # A tibble: 40 × 5
#>    symbol  name                               location    exchange      currency
#>    <chr>   <chr>                              <chr>       <chr>         <chr>   
#>  1 SIE.DE  SIEMENS N AG                       Deutschland Xetra         EUR     
#>  2 ALV.DE  ALLIANZ                            Deutschland Xetra         EUR     
#>  3 SAP.DE  SAP                                Deutschland Xetra         EUR     
#>  4 ENR.DE  SIEMENS ENERGY N AG                Deutschland Xetra         EUR     
#>  5 AIR.BE  AIRBUS                             Frankreich  Boerse Berlin EUR     
#>  6 IFX.DE  INFINEON TECHNOLOGIES AG           Deutschland Xetra         EUR     
#>  7 DTE.DE  DEUTSCHE TELEKOM N AG              Deutschland Xetra         EUR     
#>  8 MUV2.DE MUENCHENER RUECKVERSICHERUNGS-GESE Deutschland Xetra         EUR     
#>  9 DBK.DE  DEUTSCHE BANK AG                   Deutschland Xetra         EUR     
#> 10 DHL.DE  DEUTSCHE POST AG                   Deutschland Xetra         EUR     
#> # ℹ 30 more rows
download_data("FRED", series = c("GDP", "CPIAUCNS"))
#> No `start_date` or `end_date` provided. Returning the full data set.
#> # A tibble: 1,678 × 3
#>    date       value series
#>    <date>     <dbl> <chr> 
#>  1 1947-01-01  243. GDP   
#>  2 1947-04-01  246. GDP   
#>  3 1947-07-01  250. GDP   
#>  4 1947-10-01  260. GDP   
#>  5 1948-01-01  266. GDP   
#>  6 1948-04-01  273. GDP   
#>  7 1948-07-01  279. GDP   
#>  8 1948-10-01  280. GDP   
#>  9 1949-01-01  275. GDP   
#> 10 1949-04-01  271. GDP   
#> # ℹ 1,668 more rows
download_data("Stock Prices", symbols = c("AAPL", "MSFT"))
#> No `start_date` or `end_date` provided. Using the range 2024-07-01 to
#> 2025-07-01 to avoid downloading large amounts of data.
#> # A tibble: 500 × 8
#>    symbol date         volume  open   low  high close adjusted_close
#>    <chr>  <date>        <dbl> <dbl> <dbl> <dbl> <dbl>          <dbl>
#>  1 AAPL   2024-07-01 60402900  212.  212.  218.  217.           215.
#>  2 AAPL   2024-07-02 58046200  216.  215.  220.  220.           218.
#>  3 AAPL   2024-07-03 37369800  220   219.  222.  222.           220.
#>  4 AAPL   2024-07-05 60412400  222.  222.  226.  226.           224.
#>  5 AAPL   2024-07-08 59085900  227.  223.  228.  228.           226.
#>  6 AAPL   2024-07-09 48076100  228.  226.  229.  229.           227.
#>  7 AAPL   2024-07-10 62627700  229.  229.  233.  233.           231.
#>  8 AAPL   2024-07-11 64710600  231.  226.  232.  228.           226.
#>  9 AAPL   2024-07-12 53046500  229.  229.  233.  231.           229.
#> 10 AAPL   2024-07-15 62631300  236.  233.  237.  234.           232.
#> # ℹ 490 more rows
…
#>  5 2020-05-01 0.000110 
#>  6 2020-06-01 0.000110 
#>  7 2020-07-01 0.0000760
#>  8 2020-08-01 0.0000676
#>  9 2020-09-01 0.0000676
#> 10 2020-10-01 0.0000676
#> 11 2020-11-01 0.0000676
#> 12 2020-12-01 0.0000676
download_data(
  "Tidy Finance",
  "high_frequency_sp500",
  "2007-07-26",
  "2007-07-27"
)
#> # A tibble: 9,360 × 9
#>    ts                  midquote signed_volume trading_volume depth0_ask
#>    <dttm>                 <dbl>         <dbl>          <dbl>      <dbl>
#>  1 2007-07-26 09:30:05     150.             0      11565577.     13841.
#>  2 2007-07-26 09:30:10     150.             0       3017263.     10795.
#>  3 2007-07-26 09:30:15     150.             0       6108290.     12371.
#>  4 2007-07-26 09:30:20     150.         98630      21820258.     14069.
#>  5 2007-07-26 09:30:25     150.             0        931698      15283.
#>  6 2007-07-26 09:30:30     150.         -4400        661077       5307.
#>  7 2007-07-26 09:30:35     150.        -12000       2102820       3192.
#>  8 2007-07-26 09:30:40     150.         39927      12384621.      6234.
#>  9 2007-07-26 09:30:45     150.        -14671       3105370.      9255.
#> 10 2007-07-26 09:30:50     150.          5347       5518370.      5708.
#> # ℹ 9,350 more rows
#> # ℹ 4 more variables: depth0_bid <dbl>, depth5_ask <dbl>, depth5_bid <dbl>,
#> #   spread <dbl>
…
