…
  size = runif(500, 50, 150)
)
implement_portfolio_sort(
  data = data,
  sorting_variables = "size",
  sorting_method = "univariate",
  portfolio_sort_options = portfolio_sort_options(
    filter_options = filter_options(
      min_stock_price = 1
    ),
    breakpoint_options_main = breakpoint_options(n_portfolios = 5)
  )
)
#> Filter 'min_stock_price': removed 8 observations.
#> # A tibble: 500 × 5
#>    portfolio date       ret_excess_vw ret_excess_ew ret_excess_vw_capped
#>        <int> <date>             <dbl>         <dbl>                <dbl>
#>  1         1 2020-01-01        0.335         0.259                0.333 
#>  2         1 2020-02-01        0.799         0.818                0.814 
#>  3         1 2020-03-01       -0.476        -0.273               -0.334 
#>  4         1 2020-04-01       -0.216        -0.0738              -0.216 
#>  5         1 2020-05-01        0.623         0.538                0.623 
#>  6         1 2020-06-01       -0.357        -0.211               -0.357 
#>  7         1 2020-07-01        1.05          1.00                 1.05  
#>  8         1 2020-08-01        0.190         0.122                0.185 
#>  9         1 2020-09-01        1.38          1.27                 1.38  
#> 10         1 2020-10-01       -0.0496       -0.0619              -0.0498
#> # ℹ 490 more rows
…
