…
## Examples

``` r
# \donttest{
  list_supported_jkp_factors()
#> # A tibble: 102 × 1
#>    region       
#>    <chr>        
#>  1 all_countries
#>  2 all_regions  
#>  3 are          
#>  4 arg          
#>  5 aus          
#>  6 aut          
#>  7 bel          
#>  8 bgd          
#>  9 bgr          
#> 10 bhr          
#> # ℹ 92 more rows
  list_supported_jkp_factors("usa")
#> # A tibble: 169 × 2
#>    region factor     
#>    <chr>  <chr>      
#>  1 usa    accruals   
#>  2 usa    age        
#>  3 usa    aliq_at    
#>  4 usa    aliq_mat   
#>  5 usa    all_factors
#>  6 usa    all_themes 
#>  7 usa    ami_126d   
#>  8 usa    at_be      
#>  9 usa    at_gr1     
#> 10 usa    at_me      
#> # ℹ 159 more rows
  list_supported_jkp_factors("usa", dataset = "portfolios")
#> # A tibble: 153 × 2
#>    region factor     
#>    <chr>  <chr>      
#>  1 usa    age        
#>  2 usa    aliq_at    
#>  3 usa    aliq_mat   
#>  4 usa    ami_126d   
#>  5 usa    at_be      
#>  6 usa    at_gr1     
#>  7 usa    at_me      
#>  8 usa    at_turnover
#>  9 usa    be_gr1a    
#> 10 usa    be_me      
#> # ℹ 143 more rows
…
