…
## Examples

``` r
# List all supported datasets as a data frame
list_supported_datasets()
#> # A tibble: 329 × 3
#>    type                     dataset_name                   domain     
#>    <chr>                    <chr>                          <chr>      
#>  1 factors_q5_daily         q5_factors_daily_2024          Global Q   
#>  2 factors_q5_weekly        q5_factors_weekly_2024         Global Q   
#>  3 factors_q5_weekly_w2w    q5_factors_weekly_w2w_2024     Global Q   
#>  4 factors_q5_monthly       q5_factors_monthly_2024        Global Q   
#>  5 factors_q5_quarterly     q5_factors_quarterly_2024      Global Q   
#>  6 factors_q5_annual        q5_factors_annual_2024         Global Q   
#>  7 factors_ff_3_monthly     Fama/French 3 Factors          Fama-French
#>  8 factors_ff_3_weekly      Fama/French 3 Factors [Weekly] Fama-French
#>  9 factors_ff_3_daily       Fama/French 3 Factors [Daily]  Fama-French
#> 10 factors_ff_5_2x3_monthly Fama/French 5 Factors (2x3)    Fama-French
#> # ℹ 319 more rows
…
