…
Setting `add_ccm_links = TRUE` appends the CRSP-Compustat linking
identifier (`gvkey`) to the return panel, which we need to merge in
accounting data later.

``` r

crsp_monthly <- download_data(
  domain = "Pseudo Data",
  dataset = "crsp_monthly",
  start_date = date_start,
  end_date = date_end,
  add_ccm_links = TRUE
)
crsp_monthly
#> # A tibble: 636,000 × 15
#>    permno date       calculation_date      ret shrout   prc primaryexch siccd
#>     <int> <date>     <date>              <dbl>  <dbl> <dbl> <chr>       <int>
#>  1      1 1972-01-01 1972-01-31       -0.0361  12887. 201.  Q            1284
#>  2      1 1972-02-01 1972-02-29       -0.0193  26252. 997.  Q            1284
#>  3      1 1972-03-01 1972-03-31       -0.0700   5872. 294.  Q            1284
#>  4      1 1972-04-01 1972-04-30        0.0314  45175. 294.  Q            1284
#>  5      1 1972-05-01 1972-05-31       -0.00748 42106. 397.  Q            1284
#>  6      1 1972-06-01 1972-06-30       -0.132   21754. 801.  Q            1284
#>  7      1 1972-07-01 1972-07-31        0.00973 27680.  92.1 Q            1284
#>  8      1 1972-08-01 1972-08-31        0.0241  37520.  34.9 Q            1284
#>  9      1 1972-09-01 1972-09-30       -0.0371  27728. 366.  Q            1284
#> 10      1 1972-10-01 1972-10-31       -0.0859  11404.  66.9 Q            1284
#> # ℹ 635,990 more rows
#> # ℹ 7 more variables: listing_age <int>, mktcap <dbl>, mktcap_lag <dbl>,
#> #   exchange <chr>, industry <chr>, ret_excess <dbl>, gvkey <chr>
```
…
``` r

compustat_annual <- download_data(
  domain = "Pseudo Data",
  dataset = "compustat_annual",
  start_date = date_start,
  end_date = date_end,
  additional_columns = c("at", "ib"),
  only_usd = TRUE
) |>
  select(gvkey, date, at, ib)
compustat_annual
#> # A tibble: 53,000 × 4
#>    gvkey  date          at      ib
#>    <chr>  <date>     <dbl>   <dbl>
#>  1 010001 1972-12-01 154.  -11.4  
#>  2 010001 1973-12-01 145.   15.6  
#>  3 010001 1974-12-01 117.    7.28 
#>  4 010001 1975-12-01 138.   50.9  
#>  5 010001 1976-12-01  90.0   3.79 
#>  6 010001 1977-12-01  62.0   0.647
#>  7 010001 1978-12-01  95.2  18.6  
#>  8 010001 1979-12-01 107.    5.49 
#>  9 010001 1980-12-01  92.7   8.28 
#> 10 010001 1981-12-01 138.   37.9  
#> # ℹ 52,990 more rows
```
…
portfolio_returns <- implement_portfolio_sort(
  data = sorting_data,
  sorting_variables = "asset_growth",
  sorting_method = "univariate",
  rebalancing_month = 7,
  portfolio_sort_options = options_baseline
)
portfolio_returns
#> # A tibble: 3,030 × 5
#>    portfolio date       ret_excess_vw ret_excess_ew ret_excess_vw_capped
#>        <int> <date>             <dbl>         <dbl>                <dbl>
#>  1         1 1974-07-01       0.00440      0.00268              0.00329 
#>  2         1 1974-08-01       0.0144       0.0155               0.0183  
#>  3         1 1974-09-01       0.0127       0.0174               0.0122  
#>  4         1 1974-10-01       0.00393     -0.00804             -0.000116
#>  5         1 1974-11-01       0.00896      0.00957              0.0118  
#>  6         1 1974-12-01       0.00973      0.00277              0.00876 
#>  7         1 1975-01-01       0.00745      0.0136               0.00862 
#>  8         1 1975-02-01       0.00381     -0.000778             0.00609 
#>  9         1 1975-03-01       0.00760      0.0111               0.00828 
#> 10         1 1975-04-01      -0.00240     -0.00264             -0.00322 
#> # ℹ 3,020 more rows
```
…
